{
  "pollinator": "2eab2216a1c32153a60d96c0b8997d25993df3f1133625884eea38996af38629",
  "signalfx": "a9e5a3ea3478cd66ab603ff6f4b5b1f97677fc8294222f049bd92114b90d0316",
  "template": "cd8665642bf0f5b5f57a53050d10fd83415428c2dc6713b85e174e007fcc93bf"
}